{
  "torbrowser": {
    "url": "chrome://extensions/content/parent/ext-torbrowser.js",
    "schema": "chrome://extensions/content/schemas/torbrowser.json",
    "scopes": ["addon_parent"],
    "paths": [
      ["torbrowser"]
    ]
  }
}
